{
  "kind": "collectionType",
  "collectionName": "types",
  "info": {
    "name": "Type"
  },
  "options": {
    "increments": true,
    "timestamps": true
  },
  "attributes": {
    "name": {
      "type": "string",
      "required": true,
      "unique": true
    },
    "books": {
      "via": "type",
      "collection": "book"
    }
  }
}
